<svg width="50" height="28" viewBox="0 0 50 28" fill="none" xmlns="http://www.w3.org/2000/svg">
<path d="M2.4 25.12C1.752 25.12 1.256 24.936 0.912 24.568C0.568 24.2 0.396 23.68 0.396 23.008V18.592C0.396 17.92 0.568 17.4 0.912 17.032C1.256 16.664 1.752 16.48 2.4 16.48C3.048 16.48 3.544 16.664 3.888 17.032C4.232 17.4 4.404 17.92 4.404 18.592V23.008C4.404 23.68 4.232 24.2 3.888 24.568C3.544 24.936 3.048 25.12 2.4 25.12ZM2.4 23.92C2.856 23.92 3.084 23.644 3.084 23.092V18.508C3.084 17.956 2.856 17.68 2.4 17.68C1.944 17.68 1.716 17.956 1.716 18.508V23.092C1.716 23.644 1.944 23.92 2.4 23.92ZM5.29669 16.6H7.25269C7.93269 16.6 8.42869 16.76 8.74069 17.08C9.05269 17.392 9.20869 17.876 9.20869 18.532V19.048C9.20869 19.92 8.92069 20.472 8.34469 20.704V20.728C8.66469 20.824 8.88869 21.02 9.01669 21.316C9.15269 21.612 9.22069 22.008 9.22069 22.504V23.98C9.22069 24.22 9.22869 24.416 9.24469 24.568C9.26069 24.712 9.30069 24.856 9.36469 25H8.02069C7.97269 24.864 7.94069 24.736 7.92469 24.616C7.90869 24.496 7.90069 24.28 7.90069 23.968V22.432C7.90069 22.048 7.83669 21.78 7.70869 21.628C7.58869 21.476 7.37669 21.4 7.07269 21.4H6.61669V25H5.29669V16.6ZM7.09669 20.2C7.36069 20.2 7.55669 20.132 7.68469 19.996C7.82069 19.86 7.88869 19.632 7.88869 19.312V18.664C7.88869 18.36 7.83269 18.14 7.72069 18.004C7.61669 17.868 7.44869 17.8 7.21669 17.8H6.61669V20.2H7.09669ZM12.0584 16.6H13.3784V23.8H15.5504V25H12.0584V16.6ZM16.1834 16.6H19.7834V17.8H17.5034V20.02H19.3154V21.22H17.5034V23.8H19.7834V25H16.1834V16.6ZM22.2822 25.12C21.6422 25.12 21.1582 24.94 20.8302 24.58C20.5022 24.212 20.3382 23.688 20.3382 23.008V22.528H21.5862V23.104C21.5862 23.648 21.8142 23.92 22.2702 23.92C22.4942 23.92 22.6622 23.856 22.7742 23.728C22.8942 23.592 22.9542 23.376 22.9542 23.08C22.9542 22.728 22.8742 22.42 22.7142 22.156C22.5542 21.884 22.2582 21.56 21.8262 21.184C21.2822 20.704 20.9022 20.272 20.6862 19.888C20.4702 19.496 20.3622 19.056 20.3622 18.568C20.3622 17.904 20.5302 17.392 20.8662 17.032C21.2022 16.664 21.6902 16.48 22.3302 16.48C22.9622 16.48 23.4382 16.664 23.7582 17.032C24.0862 17.392 24.2502 17.912 24.2502 18.592V18.94H23.0022V18.508C23.0022 18.22 22.9462 18.012 22.8342 17.884C22.7222 17.748 22.5582 17.68 22.3422 17.68C21.9022 17.68 21.6822 17.948 21.6822 18.484C21.6822 18.788 21.7622 19.072 21.9222 19.336C22.0902 19.6 22.3902 19.92 22.8222 20.296C23.3742 20.776 23.7542 21.212 23.9622 21.604C24.1702 21.996 24.2742 22.456 24.2742 22.984C24.2742 23.672 24.1022 24.2 23.7582 24.568C23.4222 24.936 22.9302 25.12 22.2822 25.12ZM26.7471 25.12C26.1071 25.12 25.6231 24.94 25.2951 24.58C24.9671 24.212 24.8031 23.688 24.8031 23.008V22.528H26.0511V23.104C26.0511 23.648 26.2791 23.92 26.7351 23.92C26.9591 23.92 27.1271 23.856 27.2391 23.728C27.3591 23.592 27.4191 23.376 27.4191 23.08C27.4191 22.728 27.3391 22.42 27.1791 22.156C27.0191 21.884 26.7231 21.56 26.2911 21.184C25.7471 20.704 25.3671 20.272 25.1511 19.888C24.9351 19.496 24.8271 19.056 24.8271 18.568C24.8271 17.904 24.9951 17.392 25.3311 17.032C25.6671 16.664 26.1551 16.48 26.7951 16.48C27.4271 16.48 27.9031 16.664 28.2231 17.032C28.5511 17.392 28.7151 17.912 28.7151 18.592V18.94H27.4671V18.508C27.4671 18.22 27.4111 18.012 27.2991 17.884C27.1871 17.748 27.0231 17.68 26.8071 17.68C26.3671 17.68 26.1471 17.948 26.1471 18.484C26.1471 18.788 26.2271 19.072 26.3871 19.336C26.5551 19.6 26.8551 19.92 27.2871 20.296C27.8391 20.776 28.2191 21.212 28.4271 21.604C28.6351 21.996 28.7391 22.456 28.7391 22.984C28.7391 23.672 28.5671 24.2 28.2231 24.568C27.8871 24.936 27.3951 25.12 26.7471 25.12Z" fill="white"/>
<path d="M2.364 11.12C1.716 11.12 1.224 10.94 0.888 10.58C0.56 10.22 0.396 9.704 0.396 9.032V8.348H1.644V9.092C1.644 9.644 1.872 9.92 2.328 9.92C2.552 9.92 2.72 9.852 2.832 9.716C2.952 9.572 3.012 9.324 3.012 8.972V8.288C3.012 7.904 2.944 7.632 2.808 7.472C2.672 7.304 2.452 7.22 2.148 7.22H1.704V6.02H2.184C2.448 6.02 2.644 5.952 2.772 5.816C2.908 5.68 2.976 5.452 2.976 5.132V4.52C2.976 4.232 2.916 4.02 2.796 3.884C2.676 3.748 2.516 3.68 2.316 3.68C1.892 3.68 1.68 3.94 1.68 4.46V5.012H0.432V4.568C0.432 3.896 0.596 3.38 0.924 3.02C1.26 2.66 1.74 2.48 2.364 2.48C2.996 2.48 3.476 2.66 3.804 3.02C4.132 3.372 4.296 3.884 4.296 4.556V4.856C4.296 5.312 4.22 5.68 4.068 5.96C3.916 6.232 3.68 6.428 3.36 6.548V6.572C3.704 6.7 3.952 6.908 4.104 7.196C4.256 7.484 4.332 7.852 4.332 8.3V9.044C4.332 9.716 4.164 10.232 3.828 10.592C3.5 10.944 3.012 11.12 2.364 11.12ZM7.20469 11.12C6.55669 11.12 6.06069 10.936 5.71669 10.568C5.37269 10.2 5.20069 9.68 5.20069 9.008V4.592C5.20069 3.92 5.37269 3.4 5.71669 3.032C6.06069 2.664 6.55669 2.48 7.20469 2.48C7.85269 2.48 8.34869 2.664 8.69269 3.032C9.03669 3.4 9.20869 3.92 9.20869 4.592V9.008C9.20869 9.68 9.03669 10.2 8.69269 10.568C8.34869 10.936 7.85269 11.12 7.20469 11.12ZM7.20469 9.92C7.66069 9.92 7.88869 9.644 7.88869 9.092V4.508C7.88869 3.956 7.66069 3.68 7.20469 3.68C6.74869 3.68 6.52069 3.956 6.52069 4.508V9.092C6.52069 9.644 6.74869 9.92 7.20469 9.92ZM12.0233 2.6H13.9073L14.7473 8.612H14.7713L15.6113 2.6H17.4953V11H16.2473V4.64H16.2233L15.2633 11H14.1593L13.1993 4.64H13.1753V11H12.0233V2.6ZM18.4803 2.6H19.8003V11H18.4803V2.6ZM20.7889 2.6H22.4449L23.7289 7.628H23.7529V2.6H24.9289V11H23.5729L21.9889 4.868H21.9649V11H20.7889V2.6ZM27.83 11.12C27.19 11.12 26.702 10.94 26.366 10.58C26.03 10.212 25.862 9.688 25.862 9.008V2.6H27.182V9.104C27.182 9.392 27.238 9.6 27.35 9.728C27.47 9.856 27.638 9.92 27.854 9.92C28.07 9.92 28.234 9.856 28.346 9.728C28.466 9.6 28.526 9.392 28.526 9.104V2.6H29.798V9.008C29.798 9.688 29.63 10.212 29.294 10.58C28.958 10.94 28.47 11.12 27.83 11.12ZM31.7701 3.8H30.3901V2.6H34.4701V3.8H33.0901V11H31.7701V3.8ZM35.1092 2.6H38.7092V3.8H36.4292V6.02H38.2412V7.22H36.4292V9.8H38.7092V11H35.1092V2.6ZM41.208 11.12C40.568 11.12 40.084 10.94 39.756 10.58C39.428 10.212 39.264 9.688 39.264 9.008V8.528H40.512V9.104C40.512 9.648 40.74 9.92 41.196 9.92C41.42 9.92 41.588 9.856 41.7 9.728C41.82 9.592 41.88 9.376 41.88 9.08C41.88 8.728 41.8 8.42 41.64 8.156C41.48 7.884 41.184 7.56 40.752 7.184C40.208 6.704 39.828 6.272 39.612 5.888C39.396 5.496 39.288 5.056 39.288 4.568C39.288 3.904 39.456 3.392 39.792 3.032C40.128 2.664 40.616 2.48 41.256 2.48C41.888 2.48 42.364 2.664 42.684 3.032C43.012 3.392 43.176 3.912 43.176 4.592V4.94H41.928V4.508C41.928 4.22 41.872 4.012 41.76 3.884C41.648 3.748 41.484 3.68 41.268 3.68C40.828 3.68 40.608 3.948 40.608 4.484C40.608 4.788 40.688 5.072 40.848 5.336C41.016 5.6 41.316 5.92 41.748 6.296C42.3 6.776 42.68 7.212 42.888 7.604C43.096 7.996 43.2 8.456 43.2 8.984C43.2 9.672 43.028 10.2 42.684 10.568C42.348 10.936 41.856 11.12 41.208 11.12Z" fill="white"/>
<line y1="13.5" x2="44" y2="13.5" stroke="white"/>
</svg>
